Wine reviews
…
ros

3586

white

62333

NA

6035

wine_colours %>% filter(is.na(colour)) %>% count(variety, sort = TRUE)

## # A tibble: 329 x 2
##    variety                           n
##    <chr>                         <int>
##  1 corvina, rondinella, molinara   619
##  2 tempranillo blend               588
##  3 carmenre                       575
##  4 meritage                        260
##  5 g-s-m                           181
##  6 menca                          178
##  7 cabernet sauvignon-merlot       117
##  8 nerello mascalese               117
##  9 rosato                          103
## 10 cabernet sauvignon-syrah        102
## # ... with 319 more rows
…
